Baby Name Project
…
## 
## The downloaded binary packages are in
##  /var/folders/6_/09qvp4pn7yd0yqttvcx_flb00000gn/T//RtmpuoW5nr/downloaded_packages

?babynames

## No documentation for 'babynames' in specified packages and libraries:
## you could try '??babynames'

applicants <- babynames::applicants
applicants

## # A tibble: 276 x 3
##     year sex    n_all
##    <int> <chr>  <int>
##  1  1880 F      97605
##  2  1880 M     118400
##  3  1881 F      98855
##  4  1881 M     108282
##  5  1882 F     115695
##  6  1882 M     122031
##  7  1883 F     120059
##  8  1883 M     112477
##  9  1884 F     137586
## 10  1884 M     122738
## # … with 266 more rows

babynames <- babynames::babynames
babynames

## # A tibble: 1,924,665 x 5
##     year sex   name          n   prop
##    <dbl> <chr> <chr>     <int>  <dbl>
##  1  1880 F     Mary       7065 0.0724
##  2  1880 F     Anna       2604 0.0267
##  3  1880 F     Emma       2003 0.0205
##  4  1880 F     Elizabeth  1939 0.0199
##  5  1880 F     Minnie     1746 0.0179
##  6  1880 F     Margaret   1578 0.0162
##  7  1880 F     Ida        1472 0.0151
##  8  1880 F     Alice      1414 0.0145
##  9  1880 F     Bertha     1320 0.0135
## 10  1880 F     Sarah      1288 0.0132
## # … with 1,924,655 more rows

lifetables <- babynames::births
lifetables

## # A tibble: 109 x 2
##     year  births
##    <int>   <int>
##  1  1909 2718000
##  2  1910 2777000
##  3  1911 2809000
##  4  1912 2840000
##  5  1913 2869000
##  6  1914 2966000
##  7  1915 2965000
##  8  1916 2964000
##  9  1917 2944000
## 10  1918 2948000
## # … with 99 more rows

Join 2+ Datasets
I joined the first two datasets, “applicants and babynames” by year and sex. I did a full join considering they shared these two variables, and called the dataset “merged”. I then did a second full join to join the third dataset, lifetables by joining by year . I called the final dataset “merged new”" that included all three datasets.
No cases were dropped in joining all three datasets.

merged <-babynames %>% full_join(applicants)
mergednew<- merged %>% full_join(lifetables)
mergednew

## # A tibble: 1,924,665 x 7
##     year sex   name          n   prop n_all births
##    <dbl> <chr> <chr>     <int>  <dbl> <int>  <int>
##  1  1880 F     Mary       7065 0.0724 97605     NA
##  2  1880 F     Anna       2604 0.0267 97605     NA
##  3  1880 F     Emma       2003 0.0205 97605     NA
##  4  1880 F     Elizabeth  1939 0.0199 97605     NA
##  5  1880 F     Minnie     1746 0.0179 97605     NA
##  6  1880 F     Margaret   1578 0.0162 97605     NA
##  7  1880 F     Ida        1472 0.0151 97605     NA
##  8  1880 F     Alice      1414 0.0145 97605     NA
##  9  1880 F     Bertha     1320 0.0135 97605     NA
## 10  1880 F     Sarah      1288 0.0132 97605     NA
## # … with 1,924,655 more rows
…
newer <- mergednew %>% mutate(Namesfromfamily = prop*n)%>% filter(!is.na(births)) %>% rename(totalapplicants=n_all)
newer

## # A tibble: 1,839,952 x 8
##     year sex   name          n   prop totalapplicants  births Namesfromfamily
##    <dbl> <chr> <chr>     <int>  <dbl>           <int>   <int>           <dbl>
##  1  1909 F     Mary      19259 0.0523          368096 2718000          1008. 
##  2  1909 F     Helen      9250 0.0251          368096 2718000           232. 
##  3  1909 F     Margaret   7359 0.0200          368096 2718000           147. 
##  4  1909 F     Ruth       6509 0.0177          368096 2718000           115. 
##  5  1909 F     Dorothy    6253 0.0170          368096 2718000           106. 
##  6  1909 F     Anna       5804 0.0158          368096 2718000            91.5
##  7  1909 F     Elizabeth  5176 0.0141          368096 2718000            72.8
##  8  1909 F     Mildred    5054 0.0137          368096 2718000            69.4
##  9  1909 F     Marie      4301 0.0117          368096 2718000            50.3
## 10  1909 F     Alice      4170 0.0113          368096 2718000            47.2
## # … with 1,839,942 more rows

newer %>% filter(year == 1910) %>% select(n) %>% arrange(desc(n))

## # A tibble: 4,629 x 1
##        n
##    <int>
##  1 22848
##  2 11450
##  3 10479
##  4  9195
##  5  8844
##  6  8226
##  7  7318
##  8  7212
##  9  6436
## 10  5800
## # … with 4,619 more rows

newer %>% select(year,sex,name, births) %>% arrange(desc(births))

## # A tibble: 1,839,952 x 4
##     year sex   name       births
##    <dbl> <chr> <chr>       <int>
##  1  2007 F     Emily     4316233
##  2  2007 F     Isabella  4316233
##  3  2007 F     Emma      4316233
##  4  2007 F     Ava       4316233
##  5  2007 F     Madison   4316233
##  6  2007 F     Sophia    4316233
##  7  2007 F     Olivia    4316233
##  8  2007 F     Abigail   4316233
##  9  2007 F     Hannah    4316233
## 10  2007 F     Elizabeth 4316233
## # … with 1,839,942 more rows

newer %>% group_by(name) %>% summarize(mean(Namesfromfamily))

## # A tibble: 97,227 x 2
##    name      `mean(Namesfromfamily)`
##    <chr>                       <dbl>
##  1 Aaban                   0.0000622
##  2 Aabha                   0.0000261
##  3 Aabid                   0.0000122
##  4 Aabir                   0.0000124
##  5 Aabriella               0.0000239
##  6 Aada                    0.0000128
##  7 Aadam                   0.0000594
##  8 Aadan                   0.0000807
##  9 Aadarsh                 0.0000712
## 10 Aaden                   0.0828   
## # … with 97,217 more rows

newer %>% group_by(year) %>% arrange(prop)

## # A tibble: 1,839,952 x 8
## # Groups:   year [109]
##     year sex   name           n      prop totalapplicants births Namesfromfamily
##    <dbl> <chr> <chr>      <int>     <dbl>           <int>  <int>           <dbl>
##  1  2007 M     Aaban          5   2.26e-6         2213423 4.32e6       0.0000113
##  2  2007 M     Aareon         5   2.26e-6         2213423 4.32e6       0.0000113
##  3  2007 M     Aaris          5   2.26e-6         2213423 4.32e6       0.0000113
##  4  2007 M     Abd            5   2.26e-6         2213423 4.32e6       0.0000113
##  5  2007 M     Abdulazeez     5   2.26e-6         2213423 4.32e6       0.0000113
##  6  2007 M     Abdulhadi      5   2.26e-6         2213423 4.32e6       0.0000113
##  7  2007 M     Abdulhamid     5   2.26e-6         2213423 4.32e6       0.0000113
##  8  2007 M     Abdulkadir     5   2.26e-6         2213423 4.32e6       0.0000113
##  9  2007 M     Abdulrahe…     5   2.26e-6         2213423 4.32e6       0.0000113
## 10  2007 M     Abdulrahim     5   2.26e-6         2213423 4.32e6       0.0000113
## # … with 1,839,942 more rows
…
newer %>% group_by(sex) %>%
  summarize(sd_births= sd(births, na.rm=T), sd_Namesfromfamily=sd(Namesfromfamily, na.rm = T))

## # A tibble: 2 x 3
##   sex   sd_births sd_Namesfromfamily
##   <chr>     <dbl>              <dbl>
## 1 F       507727.               29.3
## 2 M       534745.               59.9

newer %>% group_by(sex, name) %>% summarize(min(prop), min(totalapplicants))

## # A tibble: 107,880 x 4
## # Groups:   sex [2]
##    sex   name      `min(prop)` `min(totalapplicants)`
##    <chr> <chr>           <dbl>                  <int>
##  1 F     Aabha      0.00000258                1928438
##  2 F     Aabriella  0.0000024                 1874899
##  3 F     Aada       0.00000257                1945317
##  4 F     Aaden      0.00000247                2022977
##  5 F     Aadhira    0.0000031                 1874899
##  6 F     Aadhvika   0.00000467                1928438
##  7 F     Aadhya     0.00000432                1874899
##  8 F     Aadi       0.00000239                1923856
##  9 F     Aadilynn   0.00000267                1874899
## 10 F     Aadison    0.00000258                1936239
## # … with 107,870 more rows

newer %>% group_by(year) %>% summarize(max(n), max(births))

## # A tibble: 109 x 3
##     year `max(n)` `max(births)`
##    <dbl>    <int>         <int>
##  1  1909    19259       2718000
##  2  1910    22848       2777000
##  3  1911    24390       2809000
##  4  1912    32304       2840000
##  5  1913    36642       2869000
##  6  1914    45345       2966000
##  7  1915    58187       2965000
##  8  1916    61438       2964000
##  9  1917    64281       2944000
## 10  1918    67366       2948000
## # … with 99 more rows

newer %>% group_by(name) %>% summarize(var(Namesfromfamily))

## # A tibble: 97,227 x 2
##    name      `var(Namesfromfamily)`
##    <chr>                      <dbl>
##  1 Aaban          0.00000000146    
##  2 Aabha          0.000000000103   
##  3 Aabid          0.000000000000125
##  4 Aabir         NA                
##  5 Aabriella      0.000000000479   
##  6 Aada          NA                
##  7 Aadam          0.00000000416    
##  8 Aadan          0.00000000631    
##  9 Aadarsh        0.00000000149    
## 10 Aaden          0.0378           
## # … with 97,217 more rows
…
newer %>% group_by(year) %>% summarize(median_n= median(n), na.rm=T)

## # A tibble: 109 x 3
##     year median_n na.rm
##    <dbl>    <dbl> <lgl>
##  1  1909       12 TRUE 
##  2  1910       12 TRUE 
##  3  1911       12 TRUE 
##  4  1912       12 TRUE 
##  5  1913       12 TRUE 
##  6  1914       12 TRUE 
##  7  1915       12 TRUE 
##  8  1916       12 TRUE 
##  9  1917       12 TRUE 
## 10  1918       12 TRUE 
## # … with 99 more rows

newer %>% summarize(last_births= last(births), na.rm=T)

## # A tibble: 1 x 2
##   last_births na.rm
##         <int> <lgl>
## 1     3855500 TRUE

newer %>% pivot_longer(cols=c("n"), names_to = "Namespicked", values_to = "Namesvalues")

## # A tibble: 1,839,952 x 9
##     year sex   name    prop totalapplicants births Namesfromfamily Namespicked
##    <dbl> <chr> <chr>  <dbl>           <int>  <int>           <dbl> <chr>      
##  1  1909 F     Mary  0.0523          368096 2.72e6          1008.  n          
##  2  1909 F     Helen 0.0251          368096 2.72e6           232.  n          
##  3  1909 F     Marg… 0.0200          368096 2.72e6           147.  n          
##  4  1909 F     Ruth  0.0177          368096 2.72e6           115.  n          
##  5  1909 F     Doro… 0.0170          368096 2.72e6           106.  n          
##  6  1909 F     Anna  0.0158          368096 2.72e6            91.5 n          
##  7  1909 F     Eliz… 0.0141          368096 2.72e6            72.8 n          
##  8  1909 F     Mild… 0.0137          368096 2.72e6            69.4 n          
##  9  1909 F     Marie 0.0117          368096 2.72e6            50.3 n          
## 10  1909 F     Alice 0.0113          368096 2.72e6            47.2 n          
## # … with 1,839,942 more rows, and 1 more variable: Namesvalues <int>
…
mostnewdata <- newer [1:100,]
mostnewdata

## # A tibble: 100 x 8
##     year sex   name          n   prop totalapplicants  births Namesfromfamily
##    <dbl> <chr> <chr>     <int>  <dbl>           <int>   <int>           <dbl>
##  1  1909 F     Mary      19259 0.0523          368096 2718000          1008. 
##  2  1909 F     Helen      9250 0.0251          368096 2718000           232. 
##  3  1909 F     Margaret   7359 0.0200          368096 2718000           147. 
##  4  1909 F     Ruth       6509 0.0177          368096 2718000           115. 
##  5  1909 F     Dorothy    6253 0.0170          368096 2718000           106. 
##  6  1909 F     Anna       5804 0.0158          368096 2718000            91.5
##  7  1909 F     Elizabeth  5176 0.0141          368096 2718000            72.8
##  8  1909 F     Mildred    5054 0.0137          368096 2718000            69.4
##  9  1909 F     Marie      4301 0.0117          368096 2718000            50.3
## 10  1909 F     Alice      4170 0.0113          368096 2718000            47.2
## # … with 90 more rows
…
library(cluster)
thenew <- newer[1:10000,]
thenew

## # A tibble: 10,000 x 8
##     year sex   name          n   prop totalapplicants  births Namesfromfamily
##    <dbl> <chr> <chr>     <int>  <dbl>           <int>   <int>           <dbl>
##  1  1909 F     Mary      19259 0.0523          368096 2718000          1008. 
##  2  1909 F     Helen      9250 0.0251          368096 2718000           232. 
##  3  1909 F     Margaret   7359 0.0200          368096 2718000           147. 
##  4  1909 F     Ruth       6509 0.0177          368096 2718000           115. 
##  5  1909 F     Dorothy    6253 0.0170          368096 2718000           106. 
##  6  1909 F     Anna       5804 0.0158          368096 2718000            91.5
##  7  1909 F     Elizabeth  5176 0.0141          368096 2718000            72.8
##  8  1909 F     Mildred    5054 0.0137          368096 2718000            69.4
##  9  1909 F     Marie      4301 0.0117          368096 2718000            50.3
## 10  1909 F     Alice      4170 0.0113          368096 2718000            47.2
## # … with 9,990 more rows
…
